<?xml version="1.0" encoding="utf-8"?>
<!-- Generator: Adobe Illustrator 26.0.2, SVG Export Plug-In . SVG Version: 6.00 Build 0)  -->
<svg version="1.1" id="Layer_1" xmlns="http://www.w3.org/2000/svg" xmlns:xlink="http://www.w3.org/1999/xlink" x="0px" y="0px"
	 viewBox="0 0 42.1 32.7" style="enable-background:new 0 0 42.1 32.7;" xml:space="preserve">
<style type="text/css">
	.st0{display:none;}
	.st1{display:inline;fill:#E72063;}
	.st2{fill:#E72063;}
</style>
<g class="st0">
	<path class="st1" d="M32.2,8.6c-3.5,0-5.7,2.8-5.7,5.5c0,2.2,1,3.2,1.9,4.2l0.2,0.2c0.4,0.4,0.6,1.4,0.5,2.6c0,0.1,0.1,0.3,0.2,0.4
		c0.1,0.1,0.2,0.1,0.3,0.1h0.3v1.8c0,0.3,0.2,0.5,0.5,0.5h1.5v3c0,0.6-0.5,1.1-1.1,1.1h-5.2c-0.6,0-1.1-0.5-1.1-1.1V8.6
		c0-1-0.8-1.9-1.9-1.9h-1.1c-0.2-1.7-1.7-2.9-3.4-2.9c-1.8,0-3.2,1.3-3.4,3h-4c-0.2-1.7-1.6-3-3.4-3c-1.9,0-3.4,1.5-3.4,3.4
		c0,1.9,1.5,3.4,3.4,3.4c0.9,0,1.7-0.4,2.3-0.9l2.5,2.1l-2.5,2.1c-0.6-0.6-1.4-1-2.4-1c-1.9,0-3.4,1.5-3.4,3.4
		c0,1.9,1.5,3.4,3.4,3.4c0.9,0,1.7-0.4,2.4-1l2.5,2.1l-2.5,2.1c-0.6-0.6-1.4-1-2.4-1c-1.9,0-3.4,1.5-3.4,3.4c0,1.9,1.5,3.4,3.4,3.4
		c1.8,0,3.2-1.3,3.4-3h4c0.2,1.7,1.6,3,3.4,3c1.8,0,3.2-1.3,3.4-3h2.3v1.1c0,1,0.8,1.9,1.9,1.9h5.2c1,0,1.9-0.8,1.9-1.9v-3h1.6
		c0.3,0,0.5-0.2,0.5-0.5v-1.8h0.3c0.1,0,0.2,0,0.3-0.1c0.1-0.1,0.2-0.3,0.2-0.4c-0.1-1.2,0.1-2.2,0.5-2.6l0.2-0.2
		c0.9-0.9,1.9-2,1.9-4.1C37.9,11.4,35.8,8.6,32.2,8.6z M23.6,8.6v7.3h-2.3c-0.2-1.7-1.6-3-3.4-3c-0.9,0-1.7,0.4-2.4,1l-2.5-2.1
		l2.5-2.1c0.6,0.6,1.4,0.9,2.3,0.9c1.8,0,3.3-1.4,3.4-3.2h1.1C23.1,7.4,23.6,7.9,23.6,8.6z M15.3,16.3c0-1.5,1.2-2.7,2.7-2.7
		c1.5,0,2.7,1.2,2.7,2.7c0,1.5-1.2,2.7-2.7,2.7C16.5,18.9,15.3,17.7,15.3,16.3z M17.9,4.5c1.5,0,2.7,1.2,2.7,2.7
		c0,1.5-1.2,2.7-2.7,2.7c-1.5,0-2.7-1.2-2.7-2.7C15.3,5.7,16.5,4.5,17.9,4.5z M7.1,9.8c-1.5,0-2.7-1.2-2.7-2.7
		c0-1.5,1.2-2.7,2.7-2.7c1.5,0,2.7,1.2,2.7,2.7C9.8,8.6,8.6,9.8,7.1,9.8z M10,9.1c0.3-0.5,0.5-1,0.6-1.6h4c0.1,0.6,0.3,1.1,0.6,1.6
		l-2.6,2.2L10,9.1z M12.5,12.2l2.6,2.1c-0.3,0.4-0.5,1-0.5,1.5h-4c-0.1-0.6-0.2-1.1-0.5-1.5L12.5,12.2z M7.1,18.9
		c-1.5,0-2.7-1.2-2.7-2.7c0-1.5,1.2-2.7,2.7-2.7c1.5,0,2.7,1.2,2.7,2.7C9.8,17.7,8.6,18.9,7.1,18.9z M10,18.2c0.3-0.4,0.5-1,0.5-1.5
		h4c0.1,0.6,0.2,1.1,0.5,1.5l-2.6,2.1L10,18.2z M12.5,21.3l2.6,2.1c-0.3,0.4-0.5,1-0.5,1.5h-4c-0.1-0.6-0.2-1.1-0.5-1.5L12.5,21.3z
		 M7.1,28c-1.5,0-2.7-1.2-2.7-2.7c0-1.5,1.2-2.7,2.7-2.7c1.5,0,2.7,1.2,2.7,2.7C9.8,26.8,8.6,28,7.1,28z M17.9,28
		c-1.5,0-2.7-1.2-2.7-2.7c0-1.5,1.2-2.7,2.7-2.7c1.5,0,2.7,1.2,2.7,2.7C20.6,26.8,19.4,28,17.9,28z M21.3,24.9c-0.2-1.7-1.6-3-3.4-3
		c-0.9,0-1.7,0.4-2.4,1l-2.5-2.1l2.5-2.1c0.6,0.6,1.4,1,2.4,1c1.8,0,3.2-1.3,3.4-3h2.3v8.3H21.3z M35.5,17.7l-0.2,0.2
		c-0.7,0.7-0.8,2-0.7,2.9h-0.4c-0.2,0-0.4,0.2-0.4,0.4V23h-3.3v-1.9c0-0.2-0.2-0.4-0.4-0.4h-0.4c0-0.9-0.1-2.2-0.7-2.9l-0.2-0.2
		c-0.9-0.9-1.7-1.7-1.7-3.6c0-2.3,1.9-4.7,5-4.7c3.1,0,5,2.5,5,4.7C37.2,16,36.4,16.8,35.5,17.7z"/>
	<path class="st1" d="M32.2,12.4c-1,0-1.8,0.8-1.8,1.8c0,0.2,0.2,0.4,0.4,0.4s0.4-0.2,0.4-0.4c0-0.6,0.5-1,1-1c0.6,0,1,0.5,1,1
		c0,0.2,0.2,0.4,0.4,0.4c0.2,0,0.4-0.2,0.4-0.4C34,13.2,33.2,12.4,32.2,12.4z"/>
</g>
<path class="st2" d="M33.3,26.1c-1.1,0-1.9-0.4-2.7-1.2v-3.3h2.7c0.1,0,0.2-0.1,0.2-0.2c0-0.1-0.1-0.2-0.2-0.2h-2.7v-4.3h2.7
	c0.1,0,0.2-0.1,0.2-0.2c0-0.1-0.1-0.2-0.2-0.2h-2.7v-4.3h2.7c0.1,0,0.2-0.1,0.2-0.2c0-0.1-0.1-0.2-0.2-0.2h-2.7V7.5h2.7
	c0.1,0,0.2-0.1,0.2-0.2c0-0.1-0.1-0.2-0.2-0.2h-2.7V4.8c0-0.2-0.4-0.2-0.4,0v2.3H26V4.8c0-0.2-0.4-0.2-0.4,0v2.3h-2.5
	c-0.1-0.9-0.8-1.6-1.7-1.7V4.8c0-0.2-0.4-0.2-0.4,0v0.6c-0.9,0.1-1.6,0.8-1.7,1.7h-2.5V4.8c0-0.2-0.4-0.2-0.4,0v2.3h-4.2V4.8
	c0-0.2-0.4-0.2-0.4,0v2.3H9c-0.1,0-0.2,0.1-0.2,0.2c0,0.1,0.1,0.2,0.2,0.2h2.6v4.3H9c-0.1,0-0.2,0.1-0.2,0.2c0,0.1,0.1,0.2,0.2,0.2
	h2.6v4.3H9c-0.1,0-0.2,0.1-0.2,0.2c0,0.1,0.1,0.2,0.2,0.2h2.6v4.3H9c-0.1,0-0.2,0.1-0.2,0.2c0,0.1,0.1,0.2,0.2,0.2h2.6V25
	c-0.7,0.7-1.6,1.1-2.6,1.1c-0.2,0-0.4,0.2-0.4,0.4c0,0.2,0.2,0.4,0.4,0.4h2.6V29c0,0.1,0.1,0.2,0.2,0.2c0.1,0,0.2-0.1,0.2-0.2v-2.1
	h4.2V29c0,0.1,0.1,0.2,0.2,0.2c0.1,0,0.2-0.1,0.2-0.2v-2.1H21V29c0,0.1,0.1,0.2,0.2,0.2c0.1,0,0.2-0.1,0.2-0.2v-2.1h4.2V29
	c0,0.1,0.1,0.2,0.2,0.2c0.1,0,0.2-0.1,0.2-0.2v-2.1h4.2V29c0,0.1,0.1,0.2,0.2,0.2c0.1,0,0.2-0.1,0.2-0.2v-2.1h2.7
	c0.2,0,0.4-0.2,0.4-0.4C33.7,26.3,33.5,26.1,33.3,26.1z M26,7.5h4.2v4.3H26V7.5z M26,12.2h4.2v4.3h-3.1c0-0.1,0-0.2-0.1-0.3
	c-0.3-1.3-0.7-2.5-1-3.7V12.2z M30.1,21.6L30.1,21.6l0.1,2.8c-0.3-0.4-0.6-0.9-0.9-1.4C29.8,22.7,30.1,22.2,30.1,21.6z M28.2,22.7
	c-0.7,0-1.2-0.5-1.2-1.2c0-0.7,0.5-1.2,1.2-1.2c0.7,0,1.2,0.5,1.2,1.2C29.4,22.1,28.9,22.7,28.2,22.7z M30.1,21.2
	c-0.1-1-0.9-1.7-1.9-1.7c-0.1,0-0.2,0-0.2,0c-0.3-0.9-0.5-1.7-0.7-2.6h3L30.1,21.2L30.1,21.2z M23.1,7.5h2.5v3.9
	C24.9,9.7,24.2,8.2,23.1,7.5C23.1,7.5,23.1,7.5,23.1,7.5z M21.2,6.1c0.7,0,1.2,0.5,1.2,1.2s-0.5,1.2-1.2,1.2c-0.7,0-1.2-0.5-1.2-1.2
	S20.5,6.1,21.2,6.1z M16.7,7.5h2.5c0,0,0,0,0,0c-1.1,0.8-1.9,2.2-2.5,3.9V7.5z M12.1,7.5h4.2v4.3h-4.2V7.5z M12.1,12.2h4.4
	c-0.3,0.8-0.5,1.7-0.8,2.6c0,0-0.1,0-0.1,0c-1,0-1.8,0.8-1.9,1.8h-1.6V12.2z M16.8,16.7c0,0.7-0.5,1.2-1.2,1.2s-1.2-0.5-1.2-1.2
	c0-0.7,0.5-1.2,1.2-1.2S16.8,16,16.8,16.7z M12.1,16.9h1.6c0.1,0.7,0.5,1.2,1.1,1.5c-0.3,1-0.6,1.9-0.9,2.8h-1.7V16.9z M12.1,21.6
	h1.6c-0.4,1.1-1,2.1-1.6,2.9V21.6z M11.5,26.1c2-1.3,3-4.3,3.9-7.5c0,0,0.1,0,0.1,0c1.1,0,1.9-0.9,1.9-1.9c0-0.8-0.4-1.4-1.1-1.7
	c0.8-2.9,1.6-5.5,3.1-6.7c0.3,0.6,1,1,1.7,1c0.7,0,1.3-0.4,1.7-1c1.7,1.3,2.6,4.7,3.5,8.2c0.3,1.1,0.6,2.3,0.9,3.3
	c-0.6,0.3-1,1-1,1.7c0,1.1,0.9,1.9,1.9,1.9c0.1,0,0.3,0,0.4,0c0.6,1.2,1.3,2.1,2.2,2.8H11.5z"/>
</svg>
